{
  "foodSearchCriteria": {
    "generalSearchInput": "sandwich",
    "pageNumber": 1,
    "requireAllWords": false
  },
  "totalHits": 3035,
  "currentPage": 1,
  "totalPages": 61,
  "foods": [
    {
      "fdcId": 529731,
      "description": "SANDWICH",
      "dataType": "Branded",
      "gtinUpc": "070640310500",
      "publishedDate": "2019-04-01",
      "brandOwner": "Wells Enterprises, Inc.",
      "ingredients": "REDUCED FAT ICE CREAM [MILK, CREAM, FUDGE SAUCE {HIGH FRUCTOSE CORN SYRUP, SWEETENED CONDENSED SKIM MILK (SKIM MILK, SUGAR, CORN SYRUP), BUTTER (CREAM, SALT), WATER, COCOA PROCESSED WITH ALKALI, CHOCOLATE LIQUOR, CONTAINS 2% OF LESS OF SUGAR, MONO AND DIGLYCERIDES, SALT, XANTHAN GUM, ARTIFICIAL FLAVORS}, SUGAR, CORN SYRUP, SKIM MILK, WHEY, BUTTERMILK, COCOA PROCESSED WITH ALKALI, CONTAINS 1% OR LESS OF MONO AND DIGLYCERIDES, CAROB BEAN GUM, CELLULOSE GUM, CARRAGEENAN, VITAMIN A PALMITATE], WAFERS (WHEAT FLOUR, SUGAR, PALM OIL, COCOA, DEXTROSE, CARAMEL COLOR, CORN FLOUR, CORN SYRUP, FOOD STARCH-MODIFIED, NATURAL AND ARTIFICIAL FLAVOR, SALT, BAKING SODA, SOY LECITHIN).",
      "allHighlightFields": "",
      "score": 406.35532
    },
    {
      "fdcId": 481873,
      "description": "SANDWICH",
      "dataType": "Branded",
      "gtinUpc": "085239002056",
      "publishedDate": "2019-04-01",
      "brandOwner": "Target Stores",
      "ingredients": "TUSCAN BREAD (ENRICHED WHEAT FLOUR [WHEAT FLOUR, MALTED BARLEY FLOUR, NIACIN, IRON, THIAMINE MONONITRATE, RIBOFLAVIN, FOLIC ACID], WATER, PALM OIL, SALT, OLIVE OIL, YEAST, DRY MALT, CALCIUM PROPIONATE, DOUGH EXTENDER [WHEAT FLOUR, MONOGLYCERIDES, GUAR GUM, CORN SYRUP SOLIDS, CONTAINS 2% OR LESS OF: ENZYME, SOYBEAN OIL], ASCORBIC ACID), ROAST BEEF (CONTAINS UP TO 10% OF A SOLUTION OF: WATER, SODIUM LACTATE, HYDROLYZED SOY PROTEIN, SALT, SODIUM PHOSPHATE, DEXTROSE, NATURAL FLAVORS AND SODIUM DIACETATE, COATED WITH: SALT, CARAMEL COLOR, DEXTROSE, HYDROLYZED SOY PROTEIN AND NATURAL FLAVORS), CHEDDAR CHEESE (MILK, CHEESE CULTURES, SALT, ENZYMES AND ANNATTO COLOR), CHIPOTLE SPREAD (VEGETABLE OIL [SOYBEAN AND/OR CANOLA OIL], CHIPOTLE PEPPER SAUCE [RED JALAPENO PEPPERS, VINEGAR, SUGAR, SALT, ONIONS], WATER, EGG YOLK, DISTILLED VINEGAR, SPICES, SALT, SUGAR, NATURAL FLAVORS), GREEN LEAF LETTUCE, RED BELL PEPPER (RED PEPPERS, WATER, SALT, CITRIC ACID), RED ONION.",
      "allHighlightFields": "",
      "score": 406.35532
    }
  ]
}
